{
    "totalItems": 10,
    "totalPages": 2,
    "currentPage": 1,
    "products": [
        {
            "id": 10,
            "title": "Product 10",
            "description": "Cake with nutella",
            "img": "https://www.bakeddessertbar.com/uploads/1/2/9/7/129709078/s223944473204119007_p381_i3_w1173.jpeg?width=800",
            "category": "Cake",
            "active": 1,
            "options": [
                {
                    "id": 14,
                    "option_id": 101,
                    "price": "89.99",
                    "size": 10
                }
            ]
        },
        {
            "id": 11,
            "title": "Product 11",
            "description": "Nutella Cake",
            "img": "https://www.bakeddessertbar.com/uploads/1/2/9/7/129709078/s223944473204119007_p381_i3_w1173.jpeg?width=800",
            "category": "Cake",
            "active": 1,
            "options": [
                {
                    "id": 14,
                    "option_id": 101,
                    "price": "89.99",
                    "size": 10
                }
            ]
        }
    ]
}