{
    "totalItems": 10,
    "totalPages": 2,
    "currentPage": 0,
    "products": [
        {
            "id": 1,
            "title": "Product 1",
            "description": "Chocolate chip cookies",
            "img": "https://images.unsplash.com/photo-1558961363-fa8fdf82db35?ixid=MnwxMjA3fDB8MHxwaG90by1wYWdlfHx8fGVufDB8fHx8&ixlib=rb-1.2.1&auto=format&fit=crop&w=1301&q=80",
            "category": "cookie",
            "active": 1,
            "options": [
                {
                    "id": 1,
                    "option_id": 11,
                    "price": "4.99",
                    "size": 1
                },
                {
                    "id": 2,
                    "option_id": 12,
                    "price": "9.99",
                    "size": 4
                }
            ]
        },
        {
            "id": 2,
            "title": "Product 2",
            "description": "Frosted cupcakes",
            "img": "https://images.unsplash.com/photo-1426869884541-df7117556757?ixlib=rb-1.2.1&ixid=MnwxMjA3fDB8MHxwaG90by1wYWdlfHx8fGVufDB8fHx8&auto=format&fit=crop&w=870&q=80",
            "category": "cupcake",
            "active": 1,
            "options": [
                {
                    "id": 3,
                    "option_id": 21,
                    "price": "4.99",
                    "size": 1
                }
            ]
        },
        {
            "id": 3,
            "title": "Product 3",
            "description": "Glazed doughnuts",
            "img": "https://images.unsplash.com/photo-1559656914-a30970c1affd?ixlib=rb-1.2.1&ixid=MnwxMjA3fDB8MHxwaG90by1wYWdlfHx8fGVufDB8fHx8&auto=format&fit=crop&w=387&q=80",
            "category": "other",
            "active": 1,
            "options": [
                {
                    "id": 4,
                    "option_id": 31,
                    "price": "4.99",
                    "size": 1
                }
            ]
        },
        {
            "id": 4,
            "title": "Product 4",
            "description": "Crinkles",
            "img": "https://www.hummingbirdhigh.com/wp-content/uploads/2020/11/ube-crinkle-cookies_01_IMG_0023-500x700.jpg",
            "category": "other",
            "active": 1,
            "options": [
                {
                    "id": 5,
                    "option_id": 41,
                    "price": "4.99",
                    "size": 1
                }
            ]
        },
        {
            "id": 5,
            "title": "Product 5",
            "description": "Churros",
            "img": "https://images.unsplash.com/photo-1615915848347-5ad361d3e9fd?ixlib=rb-1.2.1&ixid=MnwxMjA3fDB8MHxwaG90by1wYWdlfHx8fGVufDB8fHx8&auto=format&fit=crop&w=1031&q=80",
            "category": "other",
            "active": 1,
            "options": [
                {
                    "id": 6,
                    "option_id": 51,
                    "price": "4.99",
                    "size": 1
                }
            ]
        },
        {
            "id": 6,
            "title": "Product 6",
            "description": "Brownies",
            "img": "https://images.unsplash.com/photo-1515037893149-de7f840978e2?ixlib=rb-1.2.1&ixid=MnwxMjA3fDB8MHxwaG90by1wYWdlfHx8fGVufDB8fHx8&auto=format&fit=crop&w=394&q=80",
            "category": "other",
            "active": 1,
            "options": [
                {
                    "id": 7,
                    "option_id": 61,
                    "price": "4.99",
                    "size": 1
                }
            ]
        },
        {
            "id": 7,
            "title": "Product 7",
            "description": "Cake",
            "img": "https://images.unsplash.com/photo-1578985545062-69928b1d9587?ixlib=rb-1.2.1&ixid=MnwxMjA3fDB8MHxwaG90by1wYWdlfHx8fGVufDB8fHx8&auto=format&fit=crop&w=789&q=80",
            "category": "cake",
            "active": 1,
            "options": [
                {
                    "id": 8,
                    "option_id": 71,
                    "price": "49.99",
                    "size": 6
                },
                {
                    "id": 9,
                    "option_id": 72,
                    "price": "69.99",
                    "size": 8
                },
                {
                    "id": 10,
                    "option_id": 73,
                    "price": "89.99",
                    "size": 10
                }
            ]
        },
        {
            "id": 8,
            "title": "Product 8",
            "description": "Pie",
            "img": "https://images.unsplash.com/photo-1587248720327-8eb72564be1e?ixlib=rb-1.2.1&ixid=MnwxMjA3fDB8MHxwaG90by1wYWdlfHx8fGVufDB8fHx8&auto=format&fit=crop&w=387&q=80",
            "category": "other",
            "active": 1,
            "options": [
                {
                    "id": 11,
                    "option_id": 81,
                    "price": "4.99",
                    "size": 1
                }
            ]
        },
        {
            "id": 9,
            "title": "Product 9",
            "description": "Strawberry cake",
            "img": "https://images.unsplash.com/photo-1557308536-ee471ef2c390?ixlib=rb-1.2.1&ixid=MnwxMjA3fDB8MHxwaG90by1wYWdlfHx8fGVufDB8fHx8&auto=format&fit=crop&w=387&q=80",
            "category": "cake",
            "active": 1,
            "options": [
                {
                    "id": 12,
                    "option_id": 91,
                    "price": "69.99",
                    "size": 8
                },
                {
                    "id": 13,
                    "option_id": 92,
                    "price": "89.99",
                    "size": 10
                }
            ]
        }
    ]
}